{
  "aviso": "2 semanas, esclavizado por la universidad...",
  "sigEp": "6",
  "opciones": [
    {
      "formato": "ligero",
      "res": "@60fps",
      "servidor": "MEGA",
      "color": "red",
      "key": 1,
      "eps": {
        "1": [0, "162 MB", "https://mega.nz/#!0kpQnCzB!vt_b9n5I-YZ5TiFoqKyE5anuU_RFIzaYkEBChD-SwaA"]
      }
    },
    {
      "formato": "MP4",
      "res": "720p@60fps",
      "servidor": "OneDrive",
      "color": "#0d3ed5",
      "key": 2,
      "eps": {
        "1": [0, "246 MB", "https://unsaedupe-my.sharepoint.com/:v:/g/personal/faraoz_unsa_edu_pe/EY0ddAEU0OdMo09arH62F3kBrQdFvNIv6zCCfalEND3KJg?e=sdoOiD"]
      }
    }
  ]
}